[
	{
		"id":"56",
		"object":"Менеджер «Дверной сезон»",
		"date":"22.02.16",
		"total":256000000,
		"doors": [
			{
				"id":"1",
				"name":"Монарх",
				"type":"ДЛЯ КВАРТИРЫ",
				"art":"U.1.02.AvCh",
				"width":"860 мм",
				"height":"2050 мм",
				"contour":"2",
				"open_side":"Левая",
				"img_src_f":"img\/door1.jpg",
				"img_src_b":"img\/door2.jpg",
				"otdelka_f": [
					"Металл 1.2 мм",
					"16мм",
					"полимер «Черный шелк»",
					"рис. Н-51"
				],
				"otdelka_b": [
					"ПВХ",
					"МДФ",
					"10 мм",
					"фрезеровка «Спарта-4»",
					"цвет «Тиковое дерево»"
				],
				"furniture": [
					[
						"Верхний замок",
						"Kale 257L (сувальдный)"
					],
					[
						"Глазок",
						"Apecs"
					],
					[
						"Ночная задвижка",
						"Apecs L-0260"
					],
					[
						"Нижний замок",
						"Kale 252R (цилиндровый)"
					],
					[
						"Цилиндр секрета",
						"Kale с поворотной ручкой"
					],
					[
						"Ручка",
						"Crit"
					]
				],
				"price":8300000,
				"order": {
					"quantity":5,
					"comment":"Комментарий еще какой-то!"
				}
			},
			{
				"id":"6",
				"name":"Луна",
				"type":"ДЛЯ ДОМА",
				"art":"8U.01.02.vCh",
				"width":"860 мм",
				"height":"2050 мм",
				"contour":"2",
				"open_side":"Правая",
				"img_src_f":"img\/door1.jpg",
				"img_src_b":"img\/door2.jpg",
				"otdelka_f": [
					"Металл 1.2 мм",
					"16мм",
					"полимер «Черный шелк»",
					"рис. Н-51"
				],
				"otdelka_b": [
					"ПВХ",
					"МДФ",
					"10 мм",
					"фрезеровка «Спарта-4»",
					"цвет «Тиковое дерево»"
				],
				"furniture": [
					[
						"Верхний замок",
						"Kale 257L (сувальдный)"
					],
					[
						"Глазок",
						"Apecs"
					],
					[
						"Ночная задвижка",
						"Apecs L-0260"
					],
					[
						"Нижний замок",
						"Kale 252R (цилиндровый)"
					],
					[
						"Цилиндр секрета",
						"Kale с поворотной ручкой"
					]
				],
				"price":19170000,
				"order": {
					"quantity":8,
					"comment":"Комментарий еще какой-то!"
				}
			},
			{
				"id":"5",
				"name":"Спарта",
				"type":"ДЛЯ КВАРТИРЫ И ДОМА",
				"art":"80U.01.02.AvCh",
				"width":"860 мм",
				"height":"2050 мм",
				"contour":"2",
				"open_side":"Левая",
				"img_src_f":"img\/door1.jpg",
				"img_src_b":"img\/door2.jpg",
				"otdelka_f": [
					"Металл 1.2 мм",
					"16мм",
					"полимер «Черный шелк»",
					"рис. Н-51"
				],
				"otdelka_b": [
					"ПВХ",
					"МДФ",
					"10 мм",
					"фрезеровка «Спарта-4»",
					"цвет «Тиковое дерево»"
				],
				"furniture": [
					[
						"Верхний замок",
						"Kale 257L (сувальдный)"
					],
					[
						"Глазок",
						"Apecs"
					],
					[
						"Ночная задвижка",
						"Apecs L-0260"
					]
				],
				"price":20300000,
				"order": {
					"quantity":4,
					"comment":"Комментарий ни о чем!"
				}
			}
		]
	},
	{
		"id":"6",
		"object":"Менеджер «Дверной сезон»",
		"date":"10.03.16",
		"total":126000000,
		"doors": [
			{
				"id":"1",
				"name":"Монарх",
				"type":"ДЛЯ КВАРТИРЫ",
				"art":"U.1.02.AvCh",
				"width":"860 мм",
				"height":"2050 мм",
				"contour":"2",
				"open_side":"Левая",
				"img_src_f":"img\/door1.jpg",
				"img_src_b":"img\/door2.jpg",
				"otdelka_f": [
					"Металл 1.2 мм",
					"16мм",
					"полимер «Черный шелк»",
					"рис. Н-51"
				],
				"otdelka_b": [
					"ПВХ",
					"МДФ",
					"10 мм",
					"фрезеровка «Спарта-4»",
					"цвет «Тиковое дерево»"
				],
				"furniture": [
					[
						"Верхний замок",
						"Kale 257L (сувальдный)"
					],
					[
						"Глазок",
						"Apecs"
					],
					[
						"Ночная задвижка",
						"Apecs L-0260"
					],
					[
						"Нижний замок",
						"Kale 252R (цилиндровый)"
					],
					[
						"Цилиндр секрета",
						"Kale с поворотной ручкой"
					],
					[
						"Ручка",
						"Crit"
					]
				],
				"price":8300000,
				"order": {
					"quantity":3,
					"comment":"Комментарий ни о чем!"
				}
			},
			{
				"id":"5",
				"name":"Спарта",
				"type":"ДЛЯ КВАРТИРЫ И ДОМА",
				"art":"80U.01.02.AvCh",
				"width":"860 мм",
				"height":"2050 мм",
				"contour":"2",
				"open_side":"Левая",
				"img_src_f":"img\/door1.jpg",
				"img_src_b":"img\/door2.jpg",
				"otdelka_f": [
					"Металл 1.2 мм",
					"16мм",
					"полимер «Черный шелк»",
					"рис. Н-51"
				],
				"otdelka_b": [
					"ПВХ",
					"МДФ",
					"10 мм",
					"фрезеровка «Спарта-4»",
					"цвет «Тиковое дерево»"
				],
				"furniture": [
					[
						"Верхний замок",
						"Kale 257L (сувальдный)"
					],
					[
						"Глазок",
						"Apecs"
					],
					[
						"Ночная задвижка",
						"Apecs L-0260"
					]
				],
				"price":20300000,
				"order": {
					"quantity":2,
					"comment":"Комментарий ни о чем!"
				}
			}
		]
	},
	{
		"id":"2217",
		"object":"Менеджер «Дверной сезон»",
		"date":"22.02.16",
		"total":256000000,
		"doors": [
			{
				"id":"1",
				"name":"Монарх",
				"type":"ДЛЯ КВАРТИРЫ",
				"art":"U.1.02.AvCh",
				"width":"860 мм",
				"height":"2050 мм",
				"contour":"2",
				"open_side":"Левая",
				"img_src_f":"img\/door1.jpg",
				"img_src_b":"img\/door2.jpg",
				"otdelka_f": [
					"Металл 1.2 мм",
					"16мм",
					"полимер «Черный шелк»",
					"рис. Н-51"
				],
				"otdelka_b": [
					"ПВХ",
					"МДФ",
					"10 мм",
					"фрезеровка «Спарта-4»",
					"цвет «Тиковое дерево»"
				],
				"furniture": [
					[
						"Верхний замок",
						"Kale 257L (сувальдный)"
					],
					[
						"Глазок",
						"Apecs"
					],
					[
						"Ночная задвижка",
						"Apecs L-0260"
					],
					[
						"Нижний замок",
						"Kale 252R (цилиндровый)"
					],
					[
						"Цилиндр секрета",
						"Kale с поворотной ручкой"
					],
					[
						"Ручка",
						"Crit"
					]
				],
				"price":8300000,
				"order": {
					"quantity":5,
					"comment":"Комментарий еще какой-то!"
				}
			},
			{
				"id":"6",
				"name":"Луна",
				"type":"ДЛЯ ДОМА",
				"art":"8U.01.02.vCh",
				"width":"860 мм",
				"height":"2050 мм",
				"contour":"2",
				"open_side":"Правая",
				"img_src_f":"img\/door1.jpg",
				"img_src_b":"img\/door2.jpg",
				"otdelka_f": [
					"Металл 1.2 мм",
					"16мм",
					"полимер «Черный шелк»",
					"рис. Н-51"
				],
				"otdelka_b": [
					"ПВХ",
					"МДФ",
					"10 мм",
					"фрезеровка «Спарта-4»",
					"цвет «Тиковое дерево»"
				],
				"furniture": [
					[
						"Верхний замок",
						"Kale 257L (сувальдный)"
					],
					[
						"Глазок",
						"Apecs"
					],
					[
						"Ночная задвижка",
						"Apecs L-0260"
					],
					[
						"Нижний замок",
						"Kale 252R (цилиндровый)"
					],
					[
						"Цилиндр секрета",
						"Kale с поворотной ручкой"
					]
				],
				"price":19170000,
				"order": {
					"quantity":8,
					"comment":"Комментарий еще какой-то!"
				}
			},
			{
				"id":"5",
				"name":"Спарта",
				"type":"ДЛЯ КВАРТИРЫ И ДОМА",
				"art":"80U.01.02.AvCh",
				"width":"860 мм",
				"height":"2050 мм",
				"contour":"2",
				"open_side":"Левая",
				"img_src_f":"img\/door1.jpg",
				"img_src_b":"img\/door2.jpg",
				"otdelka_f": [
					"Металл 1.2 мм",
					"16мм",
					"полимер «Черный шелк»",
					"рис. Н-51"
				],
				"otdelka_b": [
					"ПВХ",
					"МДФ",
					"10 мм",
					"фрезеровка «Спарта-4»",
					"цвет «Тиковое дерево»"
				],
				"furniture": [
					[
						"Верхний замок",
						"Kale 257L (сувальдный)"
					],
					[
						"Глазок",
						"Apecs"
					],
					[
						"Ночная задвижка",
						"Apecs L-0260"
					]
				],
				"price":20300000,
				"order": {
					"quantity":4,
					"comment":"Комментарий ни о чем!"
				}
			}
		]
	},
	{
		"id":"206",
		"object":"Менеджер «Дверной сезон»",
		"date":"10.03.16",
		"total":126000000,
		"doors": [
			{
				"id":"1",
				"name":"Монарх",
				"type":"ДЛЯ КВАРТИРЫ",
				"art":"U.1.02.AvCh",
				"width":"860 мм",
				"height":"2050 мм",
				"contour":"2",
				"open_side":"Левая",
				"img_src_f":"img\/door1.jpg",
				"img_src_b":"img\/door2.jpg",
				"otdelka_f": [
					"Металл 1.2 мм",
					"16мм",
					"полимер «Черный шелк»",
					"рис. Н-51"
				],
				"otdelka_b": [
					"ПВХ",
					"МДФ",
					"10 мм",
					"фрезеровка «Спарта-4»",
					"цвет «Тиковое дерево»"
				],
				"furniture": [
					[
						"Верхний замок",
						"Kale 257L (сувальдный)"
					],
					[
						"Глазок",
						"Apecs"
					],
					[
						"Ночная задвижка",
						"Apecs L-0260"
					],
					[
						"Нижний замок",
						"Kale 252R (цилиндровый)"
					],
					[
						"Цилиндр секрета",
						"Kale с поворотной ручкой"
					],
					[
						"Ручка",
						"Crit"
					]
				],
				"price":8300000,
				"order": {
					"quantity":3,
					"comment":"Комментарий ни о чем!"
				}
			},
			{
				"id":"5",
				"name":"Спарта",
				"type":"ДЛЯ КВАРТИРЫ И ДОМА",
				"art":"80U.01.02.AvCh",
				"width":"860 мм",
				"height":"2050 мм",
				"contour":"2",
				"open_side":"Левая",
				"img_src_f":"img\/door1.jpg",
				"img_src_b":"img\/door2.jpg",
				"otdelka_f": [
					"Металл 1.2 мм",
					"16мм",
					"полимер «Черный шелк»",
					"рис. Н-51"
				],
				"otdelka_b": [
					"ПВХ",
					"МДФ",
					"10 мм",
					"фрезеровка «Спарта-4»",
					"цвет «Тиковое дерево»"
				],
				"furniture": [
					[
						"Верхний замок",
						"Kale 257L (сувальдный)"
					],
					[
						"Глазок",
						"Apecs"
					],
					[
						"Ночная задвижка",
						"Apecs L-0260"
					]
				],
				"price":20300000,
				"order": {
					"quantity":2,
					"comment":"Комментарий ни о чем!"
				}
			}
		]
	}
]